{"failedCount":1,"prefixedPath":"src\/test\/java\/resources\/GetApi.feature","packageQualifiedName":"src.test.java.resources.GetApi","loopIndex":-1,"relativePath":"src\/test\/java\/resources\/GetApi.feature","scenarioResults":[{"sectionIndex":1,"stepResults":[{"result":{"nanos":172793200,"millis":172.7932,"status":"passed"},"step":{"background":true,"line":4,"prefix":"*","index":0,"text":"url 'https:\/\/reqres.in\/api'"}},{"result":{"nanos":10239300,"millis":10.2393,"status":"passed"},"step":{"background":true,"line":5,"prefix":"*","index":1,"text":"headers Accept = 'application\/json'"},"stepLog":"15:58:03.206 did not evaluate to map Accept = 'application\/json': [type: STRING, value: application\/json]\n"},{"result":{"nanos":564200,"millis":0.5642,"status":"passed"},"step":{"line":15,"prefix":"Given","index":0,"text":"path '\/users?page=2'"}},{"result":{"nanos":1947304400,"millis":1947.3044,"status":"passed"},"step":{"line":16,"prefix":"When","index":1,"text":"method GET"},"stepLog":"15:58:04.713 request:\n1 > GET https:\/\/reqres.in\/api\/users%3Fpage=2\n1 > Host: reqres.in\n1 > Connection: Keep-Alive\n1 > User-Agent: Apache-HttpClient\/4.5.13 (Java\/1.8.0_121)\n1 > Accept-Encoding: gzip,deflate\n\n\n15:58:05.054 response time in milliseconds: 338\n1 < 200\n1 < Date: Sat, 10 Jun 2023 14:58:04 GMT\n1 < Content-Type: application\/json; charset=utf-8\n1 < Transfer-Encoding: chunked\n1 < Connection: keep-alive\n1 < X-Powered-By: Express\n1 < Access-Control-Allow-Origin: *\n1 < Etag: W\/\"2c1-N6Rqerxquq2kgQhL51EiSg4x0R8\"\n1 < Via: 1.1 vegur\n1 < Cache-Control: max-age=14400\n1 < CF-Cache-Status: HIT\n1 < Age: 273\n1 < Report-To: {\"endpoints\":[{\"url\":\"https:\\\/\\\/a.nel.cloudflare.com\\\/report\\\/v3?s=JEZLL%2F53hXJs%2FewUntOLa7eeZMh6KEjLwjCPp52fOTLBV%2BWiGHc1QOl8YiWUCvcYyzdR8Gnkzv8fujwjAnwNfrqZEuXctOjJsu%2FrYszkuufYwH6dJCluJkuJqQ%3D%3D\"}],\"group\":\"cf-nel\",\"max_age\":604800}\n1 < NEL: {\"success_fraction\":0,\"report_to\":\"cf-nel\",\"max_age\":604800}\n1 < Vary: Accept-Encoding\n1 < Server: cloudflare\n1 < CF-RAY: 7d52786ab8cd8898-LHR\n{\"page\":1,\"per_page\":6,\"total\":12,\"total_pages\":2,\"data\":[{\"id\":1,\"name\":\"cerulean\",\"year\":2000,\"color\":\"#98B2D1\",\"pantone_value\":\"15-4020\"},{\"id\":2,\"name\":\"fuchsia rose\",\"year\":2001,\"color\":\"#C74375\",\"pantone_value\":\"17-2031\"},{\"id\":3,\"name\":\"true red\",\"year\":2002,\"color\":\"#BF1932\",\"pantone_value\":\"19-1664\"},{\"id\":4,\"name\":\"aqua sky\",\"year\":2003,\"color\":\"#7BC4C4\",\"pantone_value\":\"14-4811\"},{\"id\":5,\"name\":\"tigerlily\",\"year\":2004,\"color\":\"#E2583E\",\"pantone_value\":\"17-1456\"},{\"id\":6,\"name\":\"blue turquoise\",\"year\":2005,\"color\":\"#53B0AE\",\"pantone_value\":\"15-5217\"}],\"support\":{\"url\":\"https:\/\/reqres.in\/#support-heading\",\"text\":\"To keep ReqRes free, contributions towards server costs are appreciated!\"}}\n\n"},{"result":{"nanos":29100,"millis":0.0291,"status":"passed"},"step":{"line":17,"prefix":"Then","index":2,"text":"status 200"}},{"result":{"nanos":135486200,"errorMessage":"match failed: EQUALS\n  $ | not equal (STRING:STRING)\n  'cerulean'\n  'cerulean1'\n\nsrc\/test\/java\/resources\/GetApi.feature:18","millis":135.4862,"status":"failed"},"step":{"line":18,"prefix":"And","index":3,"text":"match response.data[0].name == 'cerulean1'"},"stepLog":"15:58:05.292 src\/test\/java\/resources\/GetApi.feature:18\nAnd match response.data[0].name == 'cerulean1'\nmatch failed: EQUALS\n  $ | not equal (STRING:STRING)\n  'cerulean'\n  'cerulean1'\n\nsrc\/test\/java\/resources\/GetApi.feature:18\n"}],"line":14,"description":"","durationMillis":2266.4164,"failed":true,"error":"match failed: EQUALS\n  $ | not equal (STRING:STRING)\n  'cerulean'\n  'cerulean1'\n\nsrc\/test\/java\/resources\/GetApi.feature:18","executorName":"main","name":"Get Demo2","startTime":1686409083000,"refId":"[2:14]","endTime":1686409085292,"exampleIndex":-1}],"callDepth":0,"name":"Get API Demo","description":"","resultDate":"2023-06-10 03:58:05 PM","durationMillis":2266.4164,"passedCount":0}